…
``` r
friends_tidy <- by_speaker %>% 
  pivot_longer(
    cols = `Season 1`:`Season 10`,
    names_to = "Season",
    values_to = "Words"
  )

friends_tidy
```

    ## # A tibble: 60 x 3
    ##    speaker  Season    Words
    ##    <chr>    <chr>     <dbl>
    ##  1 Chandler Season 1   8796
    ##  2 Chandler Season 2   8248
    ##  3 Chandler Season 3   8952
    ##  4 Chandler Season 4   9695
    ##  5 Chandler Season 5   8611
    ##  6 Chandler Season 6  10764
    ##  7 Chandler Season 7   8712
    ##  8 Chandler Season 8   6262
    ##  9 Chandler Season 9  10980
    ## 10 Chandler Season 10  6589
    ## # … with 50 more rows
…
1.  Pivot the `by_season` dataset so that it is now tidy,
2.  Assign it to an object called `speaker_tidy`, and
3.  Name the code chunk `pivot_speaker`.

``` r
speaker_tidy <- by_season %>% 
    pivot_longer(
    cols = 'Chandler':'Ross',
    names_to = "Speaker",
    values_to = "Words"
    )
speaker_tidy
```

    ## # A tibble: 60 x 3
    ##    season   Speaker  Words
    ##    <chr>    <chr>    <dbl>
    ##  1 Season 1 Chandler  8796
    ##  2 Season 1 Joey      6195
    ##  3 Season 1 Monica    7851
    ##  4 Season 1 Phoebe    6522
    ##  5 Season 1 Rachel    8854
    ##  6 Season 1 Ross     10569
    ##  7 Season 2 Chandler  8248
    ##  8 Season 2 Joey      7207
    ##  9 Season 2 Monica    7822
    ## 10 Season 2 Phoebe    8713
    ## # … with 50 more rows
…
**Update** your table in the previous section to add a *table caption*.

## Challenge: One more `pivot_wider`

While you used `pivot_wider` in this activity to make data “untidy”,
that is not the only time this function is useful. Sometimes multiple
variable names are stored in one column. Data from the government
usually has this issue. For example, see:

``` r
tidyr::us_rent_income
```

    ## # A tibble: 104 x 5
    ##    GEOID NAME       variable estimate   moe
    ##    <chr> <chr>      <chr>       <dbl> <dbl>
    ##  1 01    Alabama    income      24476   136
    ##  2 01    Alabama    rent          747     3
    ##  3 02    Alaska     income      32940   508
    ##  4 02    Alaska     rent         1200    13
    ##  5 04    Arizona    income      27517   148
    ##  6 04    Arizona    rent          972     4
    ##  7 05    Arkansas   income      23789   165
    ##  8 05    Arkansas   rent          709     5
    ##  9 06    California income      29454   109
    ## 10 06    California rent         1358     3
    ## # … with 94 more rows
…
